<?xml version="1.0" encoding="UTF-8"?>
<CustomTab xmlns="http://soap.sforce.com/2006/04/metadata">
    <description>Created by Lightning App Builder</description>
    <flexiPage>CLO_Amps_App_page</flexiPage>
    <label>Amps App page</label>
    <motif>Custom53: Bell</motif>
</CustomTab>
